Causal Inference in Social Science@Kandai – 社会科学における因果推論
…
マッチング手法間の比較

実習用データ: lalonde（職業訓練と所得）

lalondeは様々なパッケージがサンプルデータとして提供しているが、本講義では{cobalt}のlalondeデータセットを利用

data("lalonde", package = "cobalt")で読み込み

その前に{cobalt}パッケージを読み込む

data("lalonde", package = "cobalt")
la_df <- as_tibble(lalonde) # tibble構造へ変換
la_df

# A tibble: 614 × 9
   treat   age  educ race   married nodegree  re74  re75   re78
   <int> <int> <int> <fct>    <int>    <int> <dbl> <dbl>  <dbl>
 1     1    37    11 black        1        1     0     0  9930.
 2     1    22     9 hispan       0        1     0     0  3596.
 3     1    30    12 black        0        0     0     0 24909.
 4     1    27    11 black        0        1     0     0  7506.
 5     1    33     8 black        0        1     0     0   290.
 6     1    22     9 black        0        1     0     0  4056.
 7     1    23    12 black        0        0     0     0     0 
 8     1    32    11 black        0        1     0     0  8472.
 9     1    22    16 black        0        0     0     0  2164.
10     1    33    12 white        1        0     0     0 12418.
# ℹ 604 more rows
…
