社会科学における因果推論 – Causal Inference in Social Science@Kandai
…
男女比が1:1なら、ATEは1.5だが…

方法1: 男女に分けてATEを推定

方法2: 性別と処置有無の交差項を投入した重回帰分析

参考) Bryan, Christopher J., Elizabeth Tipton and David S. Yeager. 2021. “Behavioural science is unlikely to change the world without a heterogeneity revolution,” Nature Human Behaviour. 5: 980–989.

因果効果の不均一性（intro_data2.csv）

data2 <- read_csv("data/intro_data2.csv")

data2

# A tibble: 500 × 4
      ID Outcome Treatment Female
   <dbl>   <dbl>     <dbl>  <dbl>
 1     1  1.09           0      1
 2     2  0.0281         0      1
 3     3  1.65           0      0
 4     4  3.83           1      1
 5     5  2.65           1      1
 6     6  1.24           1      1
 7     7  0.136          1      0
 8     8  0.507          0      1
 9     9  2.99           1      1
10    10  4.34           1      1
# ℹ 490 more rows
…
