Causal Inference in Social Science@Kandai - Rの復習
…
Rows: 5000 Columns: 8
── Column specification ────────────────────────────────────────────────────────
Delimiter: ","
chr (6): treatment, gender, voted2000, voted2002, voted2004, voted2006
dbl (2): yob, hh_size

ℹ Use `spec()` to retrieve the full column specification for this data.
ℹ Specify the column types or set `show_col_types = FALSE` to quiet this message.

　オブジェクトの中身を出力するためにはオブジェクト名を入力する。

raw_df

# A tibble: 5,000 × 8
   treatment  gender   yob hh_size voted2000 voted2002 voted2004 voted2006
   <chr>      <chr>  <dbl>   <dbl> <chr>     <chr>     <chr>     <chr>    
 1 Hawthorne  female  1955       1 no        yes       no        no       
 2 Hawthorne  male    1969       2 no        yes       no        no       
 3 Control    female  1944       2 no        no        no        no       
 4 Control    male    1974       2 no        no        yes       no       
 5 Neighbors  female  1969       2 no        no        yes       no       
 6 Control    male    1942       1 no        yes       no        no       
 7 Civic Duty male    1969       2 yes       no        no        no       
 8 Hawthorne  male    1966       2 no        yes       no        yes      
 9 Control    male    1949       2 no        yes       yes       no       
10 Control    female  1958       2 no        yes       no        no       
# … with 4,990 more rows
…
names(raw_df)

[1] "treatment" "gender"    "yob"       "hh_size"   "voted2000" "voted2002"
[7] "voted2004" "voted2006"

データハンドリングとパイプ演算子

　パイプ演算子には{magrittr}パッケージが提供する%>%とR 4.1から提供されるネイティブパイプ演算子の|>がある。現在の主流は古くから使われてきた%>%であるが、今後、|>が主流になると考えられるため、本講義では|>を使用する。しかし、多くの場合、|>の代わりに%>%を使っても同じ結果が得られる。

　パイプ演算子はパイプ前のオブジェクトを、パイプ後の関数の第一引数として渡す単純な演算子だ。たとえば、列名を変更する関数はrename()であるが、使い方はrenames(データ名, 新しい列名 = 既存の列名, ...)である。raw_dfのgender列の名前をfemaleに変更する場合は以下のように書く。

rename(raw_df, female = gender)

# A tibble: 5,000 × 8
   treatment  female   yob hh_size voted2000 voted2002 voted2004 voted2006
   <chr>      <chr>  <dbl>   <dbl> <chr>     <chr>     <chr>     <chr>    
 1 Hawthorne  female  1955       1 no        yes       no        no       
 2 Hawthorne  male    1969       2 no        yes       no        no       
 3 Control    female  1944       2 no        no        no        no       
 4 Control    male    1974       2 no        no        yes       no       
 5 Neighbors  female  1969       2 no        no        yes       no       
 6 Control    male    1942       1 no        yes       no        no       
 7 Civic Duty male    1969       2 yes       no        no        no       
 8 Hawthorne  male    1966       2 no        yes       no        yes      
 9 Control    male    1949       2 no        yes       yes       no       
10 Control    female  1958       2 no        yes       no        no       
# … with 4,990 more rows

　ここで第1引数がraw_dfだが、パイプ演算子を使うと以下のようになり、人間にとって読みやすいコードになる。

raw_df |>
  rename(female = gender)

# A tibble: 5,000 × 8
   treatment  female   yob hh_size voted2000 voted2002 voted2004 voted2006
   <chr>      <chr>  <dbl>   <dbl> <chr>     <chr>     <chr>     <chr>    
 1 Hawthorne  female  1955       1 no        yes       no        no       
 2 Hawthorne  male    1969       2 no        yes       no        no       
 3 Control    female  1944       2 no        no        no        no       
 4 Control    male    1974       2 no        no        yes       no       
 5 Neighbors  female  1969       2 no        no        yes       no       
 6 Control    male    1942       1 no        yes       no        no       
 7 Civic Duty male    1969       2 yes       no        no        no       
 8 Hawthorne  male    1966       2 no        yes       no        yes      
 9 Control    male    1949       2 no        yes       yes       no       
10 Control    female  1958       2 no        yes       no        no       
# … with 4,990 more rows

　要するに、X |> Yは「X（の結果）を使ってYを行う」ことを意味する。

　続いて、変数のリコーディングをしてみよう。xの値が"A"なら1、それ以外は0のように、戻り値が2種類の場合のリコーディングにはif_else()を使用する。書き方は以下の通りだ。

if_else(条件式, 条件が満たされる場合の戻り値, 条件が満たされない場合の戻り値)

　たとえば、raw_dfのgender列の値が"female"なら1、それ以外なら0とし、その結果をfemale列として追加するコードは以下の通り。同値を意味する演算子が=でなく、==であることに注意すること（=は<-と同じ代入演算子であるが、Rでは代入演算子として=より<-の使用を推奨している）。

mutate(raw_df, 
       female = if_else(gender == "female", 1, 0))

# A tibble: 5,000 × 9
   treatment  gender   yob hh_size voted2000 voted2002 voted2004 voted2…¹ female
   <chr>      <chr>  <dbl>   <dbl> <chr>     <chr>     <chr>     <chr>     <dbl>
 1 Hawthorne  female  1955       1 no        yes       no        no            1
 2 Hawthorne  male    1969       2 no        yes       no        no            0
 3 Control    female  1944       2 no        no        no        no            1
 4 Control    male    1974       2 no        no        yes       no            0
 5 Neighbors  female  1969       2 no        no        yes       no            1
 6 Control    male    1942       1 no        yes       no        no            0
 7 Civic Duty male    1969       2 yes       no        no        no            0
 8 Hawthorne  male    1966       2 no        yes       no        yes           0
 9 Control    male    1949       2 no        yes       yes       no            0
10 Control    female  1958       2 no        yes       no        no            1
# … with 4,990 more rows, and abbreviated variable name ¹​voted2006

　mutate()は指定された列に対して何らかの処理を行い、その結果を新しい列として追加するか、上書きする関数である。このmutate()関数の第1引数もデータであるため、以下のようにパイプ演算子を使うこともできる。

raw_df |>
  mutate(female = if_else(gender == "female", 1, 0))

# A tibble: 5,000 × 9
   treatment  gender   yob hh_size voted2000 voted2002 voted2004 voted2…¹ female
   <chr>      <chr>  <dbl>   <dbl> <chr>     <chr>     <chr>     <chr>     <dbl>
 1 Hawthorne  female  1955       1 no        yes       no        no            1
 2 Hawthorne  male    1969       2 no        yes       no        no            0
 3 Control    female  1944       2 no        no        no        no            1
 4 Control    male    1974       2 no        no        yes       no            0
 5 Neighbors  female  1969       2 no        no        yes       no            1
 6 Control    male    1942       1 no        yes       no        no            0
 7 Civic Duty male    1969       2 yes       no        no        no            0
 8 Hawthorne  male    1966       2 no        yes       no        yes           0
 9 Control    male    1949       2 no        yes       yes       no            0
10 Control    female  1958       2 no        yes       no        no            1
# … with 4,990 more rows, and abbreviated variable name ¹​voted2006

　また、mutate()内には複数のコードを書くこともできる。voted2000列からvoted2006列までそれぞれの値が"yes"であれば、1を、それ以外の場合は0にリコーディングしてみよう。

raw_df |>
  mutate(female    = if_else(gender    == "female", 1, 0),
         voted2000 = if_else(voted2000 == "yes", 1, 0),
         voted2002 = if_else(voted2002 == "yes", 1, 0),
         voted2004 = if_else(voted2004 == "yes", 1, 0),
         voted2006 = if_else(voted2006 == "yes", 1, 0))

# A tibble: 5,000 × 9
   treatment  gender   yob hh_size voted2000 voted2002 voted2004 voted2…¹ female
   <chr>      <chr>  <dbl>   <dbl>     <dbl>     <dbl>     <dbl>    <dbl>  <dbl>
 1 Hawthorne  female  1955       1         0         1         0        0      1
 2 Hawthorne  male    1969       2         0         1         0        0      0
 3 Control    female  1944       2         0         0         0        0      1
 4 Control    male    1974       2         0         0         1        0      0
 5 Neighbors  female  1969       2         0         0         1        0      1
 6 Control    male    1942       1         0         1         0        0      0
 7 Civic Duty male    1969       2         1         0         0        0      0
 8 Hawthorne  male    1966       2         0         1         0        1      0
 9 Control    male    1949       2         0         1         1        0      0
10 Control    female  1958       2         0         1         0        0      1
# … with 4,990 more rows, and abbreviated variable name ¹​voted2006

　また、パイプ演算子は2つ以上使うこともできる。たとえば、rename()を使ってgender列をfemaleに変更し、mutate()でリコーディングを行う場合、以下のように書く。これはraw_dfを使ってrename()の処理を行い、その結果をmutate()関数のデータとして渡すことを意味する。

raw_df |>
  rename(female = gender) |>
  mutate(female    = if_else(female    == "female", 1, 0),
         voted2000 = if_else(voted2000 == "yes", 1, 0),
         voted2002 = if_else(voted2002 == "yes", 1, 0),
         voted2004 = if_else(voted2004 == "yes", 1, 0),
         voted2006 = if_else(voted2006 == "yes", 1, 0))

# A tibble: 5,000 × 8
   treatment  female   yob hh_size voted2000 voted2002 voted2004 voted2006
   <chr>       <dbl> <dbl>   <dbl>     <dbl>     <dbl>     <dbl>     <dbl>
 1 Hawthorne       1  1955       1         0         1         0         0
 2 Hawthorne       0  1969       2         0         1         0         0
 3 Control         1  1944       2         0         0         0         0
 4 Control         0  1974       2         0         0         1         0
 5 Neighbors       1  1969       2         0         0         1         0
 6 Control         0  1942       1         0         1         0         0
 7 Civic Duty      0  1969       2         1         0         0         0
 8 Hawthorne       0  1966       2         0         1         0         1
 9 Control         0  1949       2         0         1         1         0
10 Control         1  1958       2         0         1         0         0
# … with 4,990 more rows

　以上のコードはデータを加工し、その結果を出力するだけであって、その結果を保存しない。もう一度raw_dfを出力してみても、これまでのデータ加工内容は反映されていないことが分かる。

raw_df

# A tibble: 5,000 × 8
   treatment  gender   yob hh_size voted2000 voted2002 voted2004 voted2006
   <chr>      <chr>  <dbl>   <dbl> <chr>     <chr>     <chr>     <chr>    
 1 Hawthorne  female  1955       1 no        yes       no        no       
 2 Hawthorne  male    1969       2 no        yes       no        no       
 3 Control    female  1944       2 no        no        no        no       
 4 Control    male    1974       2 no        no        yes       no       
 5 Neighbors  female  1969       2 no        no        yes       no       
 6 Control    male    1942       1 no        yes       no        no       
 7 Civic Duty male    1969       2 yes       no        no        no       
 8 Hawthorne  male    1966       2 no        yes       no        yes      
 9 Control    male    1949       2 no        yes       yes       no       
10 Control    female  1958       2 no        yes       no        no       
# … with 4,990 more rows

　このように頑張ってデータを加工したもののその結果が全く反映されていない。加工したデータを引き続き使っていくためには、加工結果を作業環境内に保存する必要がある。作業環境内にオブジェクトを保存するためには代入演算子（<-）を使い、名前を付けて作業空間内に保存する（ファイルとして保存されるわけではない）必要がある。今回は加工の結果をdfという名で保存する。raw_dfに上書きしても問題はないが、生データはとりあえず作業空間内に残しておくことを推奨する（Rに慣れれば上書きしても良い）。

df <- raw_df |>
  rename(female = gender) |>
  mutate(female    = if_else(female    == "female", 1, 0),
         voted2000 = if_else(voted2000 == "yes", 1, 0),
         voted2002 = if_else(voted2002 == "yes", 1, 0),
         voted2004 = if_else(voted2004 == "yes", 1, 0),
         voted2006 = if_else(voted2006 == "yes", 1, 0))

df

# A tibble: 5,000 × 8
   treatment  female   yob hh_size voted2000 voted2002 voted2004 voted2006
   <chr>       <dbl> <dbl>   <dbl>     <dbl>     <dbl>     <dbl>     <dbl>
 1 Hawthorne       1  1955       1         0         1         0         0
 2 Hawthorne       0  1969       2         0         1         0         0
 3 Control         1  1944       2         0         0         0         0
 4 Control         0  1974       2         0         0         1         0
 5 Neighbors       1  1969       2         0         0         1         0
 6 Control         0  1942       1         0         1         0         0
 7 Civic Duty      0  1969       2         1         0         0         0
 8 Hawthorne       0  1966       2         0         1         0         1
 9 Control         0  1949       2         0         1         1         0
10 Control         1  1958       2         0         1         0         0
# … with 4,990 more rows
…
　ただし、descr()を使うと数値型（numeric）変数の記述統計量のみ表示される。dfだと、treatment列は文字型（character）であるため、表示されない3。各グループがサンプルの何割かを計算するためには、treatment変数をダミー変数へ変換する必要がある。ダミー変数の作成は面倒な作業であるが、{fastDummies}パッケージのdummy_cols()を使えば簡単にできる。dummy_cols()の中にはselect_columns = "ダミー化する列名"を入れれば、当該変数をダミー変数へ変換し、新しい列として追加してくれる。それではtreatment列をダミー化&追加し、その結果をdfに上書きしてみよう。

df <- df |>
  dummy_cols(select_columns = "treatment")

df

# A tibble: 5,000 × 13
   treatm…¹ female   yob hh_size voted…² voted…³ voted…⁴ voted…⁵ treat…⁶ treat…⁷
   <chr>     <dbl> <dbl>   <dbl>   <dbl>   <dbl>   <dbl>   <dbl>   <int>   <int>
 1 Hawthor…      1  1955       1       0       1       0       0       0       0
 2 Hawthor…      0  1969       2       0       1       0       0       0       0
 3 Control       1  1944       2       0       0       0       0       0       1
 4 Control       0  1974       2       0       0       1       0       0       1
 5 Neighbo…      1  1969       2       0       0       1       0       0       0
 6 Control       0  1942       1       0       1       0       0       0       1
 7 Civic D…      0  1969       2       1       0       0       0       1       0
 8 Hawthor…      0  1966       2       0       1       0       1       0       0
 9 Control       0  1949       2       0       1       1       0       0       1
10 Control       1  1958       2       0       1       0       0       0       1
# … with 4,990 more rows, 3 more variables: treatment_Hawthorne <int>,
#   treatment_Neighbors <int>, treatment_Self <int>, and abbreviated variable
#   names ¹​treatment, ²​voted2000, ³​voted2002, ⁴​voted2004, ⁵​voted2006,
#   ⁶​`treatment_Civic Duty`, ⁷​treatment_Control

　画面には表示されないが、出力結果の下段を見るとtreatment_で始まるいくつかの変数が追加されたことが分かる。ここでは"tretmant"で始まる列のみを抽出つして確認してみよう。

df |>
  select(starts_with("treatment"))

# A tibble: 5,000 × 6
   treatment  `treatment_Civic Duty` treatment_Control treatme…¹ treat…² treat…³
   <chr>                       <int>             <int>     <int>   <int>   <int>
 1 Hawthorne                       0                 0         1       0       0
 2 Hawthorne                       0                 0         1       0       0
 3 Control                         0                 1         0       0       0
 4 Control                         0                 1         0       0       0
 5 Neighbors                       0                 0         0       1       0
 6 Control                         0                 1         0       0       0
 7 Civic Duty                      1                 0         0       0       0
 8 Hawthorne                       0                 0         1       0       0
 9 Control                         0                 1         0       0       0
10 Control                         0                 1         0       0       0
# … with 4,990 more rows, and abbreviated variable names ¹​treatment_Hawthorne,
#   ²​treatment_Neighbors, ³​treatment_Self
…
　ここで一つ注目したいのが、グループの表示順番である。変数のデータ型が文字型だと（Rコンソール上でclass(df$treatment)を入力するか、dfの出力画面でtreatmentの下に<chr>と表示されていることで確認できる）、今のようにアルファベット順で表示される。しかし、統制群は最初か最後に来るのが通例である。この順番をアルファベット順でなく、任意の順番にするためにはtreatment変数をfactor型変数へ変換する必要がある。Factor型は「順序付きの文字型変数」だと理解しても良い5。列の追加・上書き（今回はtreatment列の上書き）の処理が必要なのでmutate()関数を使う。変数をfactor型に変換する関数はfactor()関数で、第1引数としてはfactor型へ変換する変数名を指定する。第2引数はlevelsであり、出力したい順番の文字型ベクトルを指定する。スペルミスに注意すること。

df |>
  mutate(treatment = factor(treatment,
                            levels = c("Control", "Civic Duty",
                                       "Self", "Neighbors", "Hawthorne")))

# A tibble: 5,000 × 13
   treatm…¹ female   yob hh_size voted…² voted…³ voted…⁴ voted…⁵ treat…⁶ treat…⁷
   <fct>     <dbl> <dbl>   <dbl>   <dbl>   <dbl>   <dbl>   <dbl>   <int>   <int>
 1 Hawthor…      1  1955       1       0       1       0       0       0       0
 2 Hawthor…      0  1969       2       0       1       0       0       0       0
 3 Control       1  1944       2       0       0       0       0       0       1
 4 Control       0  1974       2       0       0       1       0       0       1
 5 Neighbo…      1  1969       2       0       0       1       0       0       0
 6 Control       0  1942       1       0       1       0       0       0       1
 7 Civic D…      0  1969       2       1       0       0       0       1       0
 8 Hawthor…      0  1966       2       0       1       0       1       0       0
 9 Control       0  1949       2       0       1       1       0       0       1
10 Control       1  1958       2       0       1       0       0       0       1
# … with 4,990 more rows, 3 more variables: treatment_Hawthorne <int>,
#   treatment_Neighbors <int>, treatment_Self <int>, and abbreviated variable
#   names ¹​treatment, ²​voted2000, ³​voted2002, ⁴​voted2004, ⁵​voted2006,
#   ⁶​`treatment_Civic Duty`, ⁷​treatment_Control
…
