差分の差分法 – Causal Inference in Social Science@Kandai
…
セットアップ

　本日の実習に必要なパッケージとデータを読み込む。

pacman::p_load(tidyverse,     # Rの必須パッケージ
               summarytools,  # 記述統計
               modelsummary,  # 推定結果の要約
               estimatr)      # ロバストな回帰分析

did_df <- read_csv("data/did_data3.csv")

did_df

# A tibble: 18,749 × 14
   county state  year shooting fatal_shooting non_fatal_shooting turnout demvote
    <dbl> <chr> <dbl>    <dbl>          <dbl>              <dbl>   <dbl>   <dbl>
 1   1001 01     1996        0              0                  0    56.1    32.5
 2   1001 01     2000        0              0                  0    56.8    28.7
 3   1001 01     2004        0              0                  0    60.2    23.7
 4   1001 01     2008        0              0                  0    64.1    25.8
 5   1001 01     2012        0              0                  0    61.0    26.5
 6   1001 01     2016        0              0                  0    60.7    24.0
 7   1003 01     1996        0              0                  0    51.8    27.1
 8   1003 01     2000        0              0                  0    54.6    24.8
 9   1003 01     2004        0              0                  0    59.8    22.5
10   1003 01     2008        0              0                  0    62.4    23.8
# ℹ 18,739 more rows
# ℹ 6 more variables: population <dbl>, non_white <dbl>,
#   change_unem_rate <dbl>, county_f <dbl>, state_f <chr>, year_f <dbl>

　データの詳細はスライドを参照すること。DID推定には時間（年）とカウンティー（郡）の固定効果を投入し、州レベルでクラスタリングした標準誤差を使う予定である。これらの変数を予めfactor化しておこう。factor化した変数は変数名の後ろに_fを付けて、新しい列として追加しておく。

did_df <- did_df |>
  mutate(county_f = factor(county),
         state_f  = factor(state),
         year_f   = factor(year))

did_df

# A tibble: 18,749 × 14
   county state  year shooting fatal_shooting non_fatal_shooting turnout demvote
    <dbl> <chr> <dbl>    <dbl>          <dbl>              <dbl>   <dbl>   <dbl>
 1   1001 01     1996        0              0                  0    56.1    32.5
 2   1001 01     2000        0              0                  0    56.8    28.7
 3   1001 01     2004        0              0                  0    60.2    23.7
 4   1001 01     2008        0              0                  0    64.1    25.8
 5   1001 01     2012        0              0                  0    61.0    26.5
 6   1001 01     2016        0              0                  0    60.7    24.0
 7   1003 01     1996        0              0                  0    51.8    27.1
 8   1003 01     2000        0              0                  0    54.6    24.8
 9   1003 01     2004        0              0                  0    59.8    22.5
10   1003 01     2008        0              0                  0    62.4    23.8
# ℹ 18,739 more rows
# ℹ 6 more variables: population <dbl>, non_white <dbl>,
#   change_unem_rate <dbl>, county_f <fct>, state_f <fct>, year_f <fct>
…
