回帰分析とマッチング – CI4SS@Kandai
…
　マッチングにおける古典的なデータセット、lalondeを読み込む。data(lalonde, package = "cobalt")を入力するだけで、{cobalt}パッケージ内のlaondeという名前のデータフレームが作業環境内にlalondeという名で格納される1。このデータをla_dfという名のオブジェクトとして改めて保存しておこう。ただし、lalondeデータセットの形式はdata.frameである。このままでも全く問題ないが、data.frameの拡張版であるtibble形式の方がより読みやすいので、格納する前にlalondeのデータ構造をdata.frameからtibbleへ変更しておこう（as_tibble()関数を使う）。

# cobaltパッケージが提供するデータセットの読み込み
data("lalonde", package = "cobalt")

la_df <- as_tibble(lalonde)

　それでは、データの中身を確認してみよう。

la_df

# A tibble: 614 × 9
   treat   age  educ race   married nodegree  re74  re75   re78
   <int> <int> <int> <fct>    <int>    <int> <dbl> <dbl>  <dbl>
 1     1    37    11 black        1        1     0     0  9930.
 2     1    22     9 hispan       0        1     0     0  3596.
 3     1    30    12 black        0        0     0     0 24909.
 4     1    27    11 black        0        1     0     0  7506.
 5     1    33     8 black        0        1     0     0   290.
 6     1    22     9 black        0        1     0     0  4056.
 7     1    23    12 black        0        0     0     0     0 
 8     1    32    11 black        0        1     0     0  8472.
 9     1    22    16 black        0        0     0     0  2164.
10     1    33    12 white        1        0     0     0 12418.
# ℹ 604 more rows

　分析に入る前に、名目変数である人種（race）をダミー変数に変換する。raceは3種類の値で構成されているため、生成するダミー変数も3つとなる。ダミー化には{fastDummies}パッケージのdummy_cols()関数を使用する。

la_df <- la_df |>
  dummy_cols(select_columns = "race")

la_df

# A tibble: 614 × 12
   treat   age  educ race   married nodegree  re74  re75   re78 race_black
   <int> <int> <int> <fct>    <int>    <int> <dbl> <dbl>  <dbl>      <int>
 1     1    37    11 black        1        1     0     0  9930.          1
 2     1    22     9 hispan       0        1     0     0  3596.          0
 3     1    30    12 black        0        0     0     0 24909.          1
 4     1    27    11 black        0        1     0     0  7506.          1
 5     1    33     8 black        0        1     0     0   290.          1
 6     1    22     9 black        0        1     0     0  4056.          1
 7     1    23    12 black        0        0     0     0     0           1
 8     1    32    11 black        0        1     0     0  8472.          1
 9     1    22    16 black        0        0     0     0  2164.          1
10     1    33    12 white        1        0     0     0 12418.          0
# ℹ 604 more rows
# ℹ 2 more variables: race_hispan <int>, race_white <int>

　このまま記述統計を見たり、分析に入っても良いが、もう少しデータを加工してみよう。まずrace_で始まる3つのダミー変数の位置をraceの前へ変更する。また、race変数は不要なので、race変数を除外する。最後に、race_で始まるダミー変数の名前を変更してみよう。変数の位置変更はrelocate()関数を使用する。

la_df <- la_df |>
  relocate(starts_with("race_"), .before = race) |>
  select(-race) |>
  rename("black"    = "race_black",
         "hispanic" = "race_hispan",
         "white"    = "race_white")

la_df

# A tibble: 614 × 11
   treat   age  educ black hispanic white married nodegree  re74  re75   re78
   <int> <int> <int> <int>    <int> <int>   <int>    <int> <dbl> <dbl>  <dbl>
 1     1    37    11     1        0     0       1        1     0     0  9930.
 2     1    22     9     0        1     0       0        1     0     0  3596.
 3     1    30    12     1        0     0       0        0     0     0 24909.
 4     1    27    11     1        0     0       0        1     0     0  7506.
 5     1    33     8     1        0     0       0        1     0     0   290.
 6     1    22     9     1        0     0       0        1     0     0  4056.
 7     1    23    12     1        0     0       0        0     0     0     0 
 8     1    32    11     1        0     0       0        1     0     0  8472.
 9     1    22    16     1        0     0       0        0     0     0  2164.
10     1    33    12     0        0     1       1        0     0     0 12418.
# ℹ 604 more rows
…
　thresholds引数は垂直線（破線）の位置、absは標準化差分を絶対値で示すことを意味する。マッチング後の標準化差分（Adjusted; 赤い点）が0.25より左側に位置している場合、バランスしていると判断できる3。むろん、より厳格な基準として0.03、0.05、0.1を使うこともできる。他にもマッチング後の標準化差分がマッチング前（Unadjusted; 青い点）より改善されるいるか否かも判断できる。今回の例だと、大幅にバランスが改善されている。0.25を基準とした場合、blackはまだバランスが取れていないが、それでも大幅に改善されていることが分かる。

　それではATTを推定してみよう。推定方法としてはノンパラメトリックな方法とパラメトリック方法があるが、結果は変わらない。ノンパラメトリックな方法はペアごとの差分を計算し、その平均値を求める方法だが、マッチング済みのデータに対し、処置変数を結果変数を回帰させることも、結果的には同じことを行うことになる。したがって、もっと簡単なパラメトリック方法、つまり単回帰分析でATTを推定しよう。

　回帰分析を行うためにはデータが必要だ。つまり、マッチングされないケースをデータから除去する必要がある。ここではmatch.data()関数を使ったマッチングされたケースのみを抽出してみよう。抽出したデータはmh_data1と名付ける。

mh_data1 <- match.data(mh_mat1)

マッチングデータが取れたら、その中身を確認してみましょう。

mh_data1

# A tibble: 370 × 13
   treat   age  educ black hispanic white married nodegree  re74  re75   re78
   <int> <int> <int> <int>    <int> <int>   <int>    <int> <dbl> <dbl>  <dbl>
 1     1    37    11     1        0     0       1        1     0     0  9930.
 2     1    22     9     0        1     0       0        1     0     0  3596.
 3     1    30    12     1        0     0       0        0     0     0 24909.
 4     1    27    11     1        0     0       0        1     0     0  7506.
 5     1    33     8     1        0     0       0        1     0     0   290.
 6     1    22     9     1        0     0       0        1     0     0  4056.
 7     1    23    12     1        0     0       0        0     0     0     0 
 8     1    32    11     1        0     0       0        1     0     0  8472.
 9     1    22    16     1        0     0       0        0     0     0  2164.
10     1    33    12     0        0     1       1        0     0     0 12418.
# ℹ 360 more rows
# ℹ 2 more variables: weights <dbl>, subclass <fct>
…
　復元マッチングのメリットは非復元マッチングに比べ、バランス改善の程度が大きいという点だ。非復元マッチングの場合、マッチングに使われた統制群は二度と使われないため、場合によっては近いマッチングケースがあるにも関わらず、マッチングできないからだ。ただし、復元マッチングにもデメリットはある。たとえば、有効サンプルサイズ（Effective Sample Size; ESS）が小さくなり、精度が悪くなる点、場合によっては特殊な標準誤差6を使う必要があるといった欠点もある。

　それではマッチング後のデータを確認してみよう。

mh_data2

# A tibble: 263 × 12
   treat   age  educ black hispanic white married nodegree  re74  re75   re78
   <int> <int> <int> <int>    <int> <int>   <int>    <int> <dbl> <dbl>  <dbl>
 1     1    37    11     1        0     0       1        1     0     0  9930.
 2     1    22     9     0        1     0       0        1     0     0  3596.
 3     1    30    12     1        0     0       0        0     0     0 24909.
 4     1    27    11     1        0     0       0        1     0     0  7506.
 5     1    33     8     1        0     0       0        1     0     0   290.
 6     1    22     9     1        0     0       0        1     0     0  4056.
 7     1    23    12     1        0     0       0        0     0     0     0 
 8     1    32    11     1        0     0       0        1     0     0  8472.
 9     1    22    16     1        0     0       0        0     0     0  2164.
10     1    33    12     0        0     1       1        0     0     0 12418.
# ℹ 253 more rows
# ℹ 1 more variable: weights <dbl>
…
　CEMの場合、（非復元）最近傍マッチングよりもバランスが大きく改善されることが分かる。その理由は簡単だ。最近傍マッチングの場合、最も近いケースであれば、どれほど離れていてもマッチングされる。一方、CEMは正確マッチングの一種であるため、ある程度離れているケースを捨ててしまうため、結局は共変量が非常に近いケースのみを残すことになります。

　それでは、match.data()関数を使ってマッチング後のデータを抽出してみよう。

cem_data <- match.data(cem_mat)

cem_data

# A tibble: 140 × 13
   treat   age  educ black hispanic white married nodegree  re74  re75   re78
   <int> <int> <int> <int>    <int> <int>   <int>    <int> <dbl> <dbl>  <dbl>
 1     1    22     9     0        1     0       0        1     0     0  3596.
 2     1    27    11     1        0     0       0        1     0     0  7506.
 3     1    22     9     1        0     0       0        1     0     0  4056.
 4     1    23    12     1        0     0       0        0     0     0     0 
 5     1    22    16     1        0     0       0        0     0     0  2164.
 6     1    19     9     1        0     0       0        1     0     0  8174.
 7     1    21    13     1        0     0       0        0     0     0 17095.
 8     1    18     8     1        0     0       0        1     0     0     0 
 9     1    17     7     1        0     0       0        1     0     0  3024.
10     1    19    10     1        0     0       0        1     0     0  3229.
# ℹ 130 more rows
# ℹ 2 more variables: weights <dbl>, subclass <fct>
…
　まずは、{broom}パッケージのtidy()関数で回帰分析の結果を表でまとめ、bind_rows()を使って一つに統合する。tidy()内にconf.int = TRUEを入れておくと、95%信頼区間も出してくれるので、今の段階で入れておこう。

att_df <- bind_rows(list("単回帰_最近傍（マハラノビス）" = tidy(mh_fit3, conf.int = TRUE),
                         "重回帰_最近傍（マハラノビス）" = tidy(mh_fit4, conf.int = TRUE),
                         "単回帰_最近傍（傾向スコア）"   = tidy(ps_fit1, conf.int = TRUE),
                         "重回帰_最近傍（傾向スコア）"   = tidy(ps_fit2, conf.int = TRUE),
                         "単回帰_CEM" = tidy(cem_fit1, conf.int = TRUE),
                         "重回帰_CEM" = tidy(cem_fit2, conf.int = TRUE),
                         "単回帰_IPW" = tidy(ipw_fit1, conf.int = TRUE),
                         "重回帰_IPW" = tidy(ipw_fit2, conf.int = TRUE)),
                    .id = "Model")

att_df

# A tibble: 48 × 8
   Model          term  estimate std.error statistic  p.value conf.low conf.high
   <chr>          <chr>    <dbl>     <dbl>     <dbl>    <dbl>    <dbl>     <dbl>
 1 単回帰_最近傍（マハラノビ… (Int…  5.95e+3     833.     7.15   8.74e-12    4314.     7594.
 2 単回帰_最近傍（マハラノビ… treat  3.95e+2     993.     0.398  6.91e- 1   -1560.     2350.
 3 重回帰_最近傍（マハラノビ… (Int…  1.37e+3    4742.     0.288  7.73e- 1   -7972.    10707.
 4 重回帰_最近傍（マハラノビ… treat  3.19e+2     990.     0.322  7.47e- 1   -1630.     2268.
 5 重回帰_最近傍（マハラノビ… age    7.38e-1      63.3    0.0117 9.91e- 1    -124.      125.
 6 重回帰_最近傍（マハラノビ… educ   5.13e+2     315.     1.63   1.05e- 1    -108.     1134.
 7 重回帰_最近傍（マハラノビ… black -1.44e+3    1547.    -0.932  3.52e- 1   -4489.     1606.
 8 重回帰_最近傍（マハラノビ… hisp…  4.72e+1    2391.     0.0197 9.84e- 1   -4662.     4757.
 9 重回帰_最近傍（マハラノビ… marr…  2.95e+2    1269.     0.232  8.17e- 1   -2204.     2793.
10 重回帰_最近傍（マハラノビ… node…  1.73e+1    1402.     0.0123 9.90e- 1   -2743.     2778.
# ℹ 38 more rows
…
